[
null,
{"id":1,"animationId":-1,"damage":{"critical":false,"elementId":-1,"formula":"a.atk * 4 - b.def * 2","type":1,"variance":20},"description":"Ataque com as mãos","effects":[],"hitType":1,"iconIndex":76,"message1":" conjura %1!","message2":"","mpCost":0,"name":"Ataque Básico","note":"Habilidade #1 será usada quando você selecionar o comando de Ataque.","occasion":1,"repeats":1,"requiredWtypeId1":0,"requiredWtypeId2":0,"scope":1,"speed":0,"stypeId":0,"successRate":100,"tpCost":0,"tpGain":10},
{"id":2,"animationId":0,"damage":{"critical":false,"elementId":0,"formula":"0","type":0,"variance":20},"description":"","effects":[{"code":21,"dataId":2,"value1":1,"value2":0}],"hitType":0,"iconIndex":81,"message1":" defende.","message2":"","mpCost":0,"name":"Proteção","note":"Habilidade #2 será usada quando você selecionar o comando da Defender.","occasion":1,"repeats":1,"requiredWtypeId1":0,"requiredWtypeId2":0,"scope":11,"speed":2000,"stypeId":0,"successRate":100,"tpCost":0,"tpGain":10},
{"id":3,"animationId":76,"damage":{"critical":false,"elementId":0,"formula":"0","type":0,"variance":20},"description":"Deixa o Inimigo com cegueira","effects":[{"code":32,"dataId":2,"value1":2,"value2":0},{"code":21,"dataId":5,"value1":1,"value2":0}],"hitType":0,"iconIndex":25,"message1":"","message2":"","mpCost":20,"name":"Faísca","note":"","occasion":1,"repeats":1,"requiredWtypeId1":0,"requiredWtypeId2":0,"scope":1,"speed":0,"stypeId":1,"successRate":100,"tpCost":0,"tpGain":0},
{"id":4,"animationId":101,"damage":{"critical":false,"elementId":0,"formula":"a.atk * 5 - b.def * 2","type":1,"variance":20},"description":"Um feitiço forte, que consome 20% do HP","effects":[{"code":11,"dataId":0,"value1":-0.2,"value2":0}],"hitType":0,"iconIndex":107,"message1":"","message2":"","mpCost":0,"name":"Afada Kebrada","note":"","occasion":0,"repeats":1,"requiredWtypeId1":0,"requiredWtypeId2":0,"scope":1,"speed":0,"stypeId":1,"successRate":100,"tpCost":0,"tpGain":0},
{"id":5,"animationId":113,"damage":{"critical":false,"elementId":0,"formula":"a.atk * 7 - b.def * 3","type":1,"variance":20},"description":"Atirar com a arma atual","effects":[],"hitType":0,"iconIndex":115,"message1":"","message2":"","mpCost":0,"name":"Shotgun","note":"<Item 11 Cost: 3>\n","occasion":1,"repeats":3,"requiredWtypeId1":2,"requiredWtypeId2":11,"scope":1,"speed":0,"stypeId":1,"successRate":100,"tpCost":0,"tpGain":0},
{"id":6,"animationId":112,"damage":{"critical":false,"elementId":0,"formula":"a.atk * 6 - b.def * 3","type":1,"variance":20},"description":"Atirar com a arma atual","effects":[],"hitType":0,"iconIndex":116,"message1":"","message2":"","mpCost":0,"name":"Rifle","note":"<Item 0013 Cost: 5>\n","occasion":1,"repeats":5,"requiredWtypeId1":2,"requiredWtypeId2":11,"scope":1,"speed":0,"stypeId":1,"successRate":100,"tpCost":0,"tpGain":0},
{"id":7,"animationId":111,"damage":{"critical":false,"elementId":0,"formula":"a.atk * 8 - b.def * 3","type":1,"variance":20},"description":"Atirar com a arma atual","effects":[],"hitType":1,"iconIndex":104,"message1":"","message2":"","mpCost":0,"name":"Pistola","note":"<Item 0012 Cost: 1>\n","occasion":1,"repeats":1,"requiredWtypeId1":2,"requiredWtypeId2":11,"scope":1,"speed":0,"stypeId":1,"successRate":100,"tpCost":0,"tpGain":0},
{"id":8,"animationId":41,"damage":{"critical":false,"elementId":0,"formula":"200 + a.mat","type":3,"variance":20},"description":"Cura 200 + Ataque Magico","effects":[],"hitType":0,"iconIndex":72,"message1":" conjura %1!","message2":"","mpCost":5,"name":"Curar","note":"","occasion":0,"repeats":1,"requiredWtypeId1":0,"requiredWtypeId2":0,"scope":7,"speed":0,"stypeId":1,"successRate":100,"tpCost":0,"tpGain":10},
{"id":9,"animationId":2,"damage":{"critical":false,"elementId":0,"formula":"a.atk * 7 - b.def * 3","type":1,"variance":20},"description":"","effects":[],"hitType":1,"iconIndex":298,"message1":"","message2":"","mpCost":0,"name":"Ataque Forte","note":"","occasion":1,"repeats":1,"requiredWtypeId1":0,"requiredWtypeId2":0,"scope":1,"speed":0,"stypeId":0,"successRate":100,"tpCost":0,"tpGain":0},
{"id":10,"animationId":32,"damage":{"critical":false,"elementId":0,"formula":"a.atk * 6 - b.def * 3","type":1,"variance":20},"description":"Deixa o inimigo confuso.","effects":[],"hitType":2,"iconIndex":6,"message1":"","message2":"","mpCost":0,"name":"Sopro","note":"","occasion":1,"repeats":1,"requiredWtypeId1":0,"requiredWtypeId2":0,"scope":2,"speed":0,"stypeId":2,"successRate":100,"tpCost":0,"tpGain":0}
]